-------------------------------------------------------------------------------
Test set: za.co.wethinkcode.fleamarket.model.RatingTest
-------------------------------------------------------------------------------
Tests run: 1, Failures: 0, Errors: 0, Skipped: 0, Time elapsed: 0.001 s - in za.co.wethinkcode.fleamarket.model.RatingTest
